%YAML 1.1
%TAG !u! tag:unity3d.com,2011:
--- !u!114 &11400000
MonoBehaviour:
  m_ObjectHideFlags: 0
  m_CorrespondingSourceObject: {fileID: 0}
  m_PrefabInternal: {fileID: 0}
  m_GameObject: {fileID: 0}
  m_Enabled: 1
  m_EditorHideFlags: 0
  m_Script: {fileID: 11500000, guid: f9249f5acfb59b34990b42b8b843c7eb, type: 3}
  m_Name: SteamVR_Input_ActionSet_buggy_In
  m_EditorClassIdentifier: 
  actionSet: {fileID: 0}
  listDirection: 0
  actions:
  - {fileID: 11400000, guid: 35d9abf54a9bc434885995a66ad50caa, type: 2}
  - {fileID: 11400000, guid: fd1b30988068a5f4093f10d14fce3df2, type: 2}
  - {fileID: 11400000, guid: 79c8eb9b317ad3e458de91d6d8ab8f8f, type: 2}
  - {fileID: 11400000, guid: 0f0874b69d4c31142883eeda18492f79, type: 2}
  Steering: {fileID: 11400000, guid: 35d9abf54a9bc434885995a66ad50caa, type: 2}
  Throttle: {fileID: 11400000, guid: fd1b30988068a5f4093f10d14fce3df2, type: 2}
  Brake: {fileID: 11400000, guid: 79c8eb9b317ad3e458de91d6d8ab8f8f, type: 2}
  Reset: {fileID: 11400000, guid: 0f0874b69d4c31142883eeda18492f79, type: 2}
